module synthesis

go 1.20

require (
	github.com/Masterminds/squirrel v1.5.3
	github.com/jinzhu/copier v0.3.5
	github.com/pkg/errors v0.9.1
	github.com/zeromicro/go-zero v1.5.0
	google.golang.org/grpc v1.53.0
	google.golang.org/protobuf v1.29.0
)

require (
	github.com/beorn7/perks v1.0.1 // indirect
	github.com/cenkalti/backoff/v4 v4.2.0 // indirect
	github.com/cespare/xxhash/v2 v2.2.0 // indirect
	github.com/coreos/go-semver v0.3.1 // indirect
	github.com/coreos/go-systemd/v22 v22.5.0 // indirect
	github.com/davecgh/go-spew v1.1.1 // indirect
	github.com/dgryski/go-rendezvous v0.0.0-20200823014737-9f7001d12a5f // indirect
	github.com/emicklei/go-restful/v3 v3.9.0 // indirect
	github.com/fatih/color v1.14.1 // indirect
	github.com/felixge/fgprof v0.9.3 // indirect
	github.com/go-logr/logr v1.2.3 // indirect
	github.com/go-logr/stdr v1.2.2 // indirect
	github.com/go-openapi/jsonpointer v0.19.5 // indirect
	github.com/go-openapi/jsonreference v0.20.0 // indirect
	github.com/go-openapi/swag v0.19.14 // indirect
	github.com/go-redis/redis/v8 v8.11.5 // indirect
	github.com/go-sql-driver/mysql v1.7.0 // indirect
	github.com/gogo/protobuf v1.3.2 // indirect
	github.com/golang/mock v1.6.0 // indirect
	github.com/golang/protobuf v1.5.2 // indirect
	github.com/google/gnostic v0.5.7-v3refs // indirect
	github.com/google/go-cmp v0.5.9 // indirect
	github.com/google/gofuzz v1.2.0 // indirect
	github.com/google/pprof v0.0.0-20211214055906-6f57359322fd // indirect
	github.com/grpc-ecosystem/grpc-gateway/v2 v2.15.0 // indirect
	github.com/josharian/intern v1.0.0 // indirect
	github.com/json-iterator/go v1.1.12 // indirect
	github.com/lann/builder v0.0.0-20180802200727-47ae307949d0 // indirect
	github.com/lann/ps v0.0.0-20150810152359-62de8c46ede0 // indirect
	github.com/mailru/easyjson v0.7.6 // indirect
	github.com/mattn/go-colorable v0.1.13 // indirect
	github.com/mattn/go-isatty v0.0.17 // indirect
	github.com/matttproud/golang_protobuf_extensions v1.0.2-0.20181231171920-c182affec369 // indirect
	github.com/modern-go/concurrent v0.0.0-20180306012644-bacd9c7ef1dd // indirect
	github.com/modern-go/reflect2 v1.0.2 // indirect
	github.com/munnerz/goautoneg v0.0.0-20191010083416-a7dc8b61c822 // indirect
	github.com/openzipkin/zipkin-go v0.4.1 // indirect
	github.com/pelletier/go-toml/v2 v2.0.7 // indirect
	github.com/prometheus/client_golang v1.14.0 // indirect
	github.com/prometheus/client_model v0.3.0 // indirect
	github.com/prometheus/common v0.37.0 // indirect
	github.com/prometheus/procfs v0.8.0 // indirect
	github.com/spaolacci/murmur3 v1.1.0 // indirect
	go.etcd.io/etcd/api/v3 v3.5.7 // indirect
	go.etcd.io/etcd/client/pkg/v3 v3.5.7 // indirect
	go.etcd.io/etcd/client/v3 v3.5.7 // indirect
	go.opentelemetry.io/otel v1.14.0 // indirect
	go.opentelemetry.io/otel/exporters/jaeger v1.14.0 // indirect
	go.opentelemetry.io/otel/exporters/otlp/internal/retry v1.14.0 // indirect
	go.opentelemetry.io/otel/exporters/otlp/otlptrace v1.14.0 // indirect
	go.opentelemetry.io/otel/exporters/otlp/otlptrace/otlptracegrpc v1.14.0 // indirect
	go.opentelemetry.io/otel/exporters/otlp/otlptrace/otlptracehttp v1.14.0 // indirect
	go.opentelemetry.io/otel/exporters/zipkin v1.14.0 // indirect
	go.opentelemetry.io/otel/sdk v1.14.0 // indirect
	go.opentelemetry.io/otel/trace v1.14.0 // indirect
	go.opentelemetry.io/proto/otlp v0.19.0 // indirect
	go.uber.org/atomic v1.10.0 // indirect
	go.uber.org/automaxprocs v1.5.1 // indirect
	go.uber.org/multierr v1.9.0 // indirect
	go.uber.org/zap v1.24.0 // indirect
	golang.org/x/net v0.7.0 // indirect
	golang.org/x/oauth2 v0.4.0 // indirect
	golang.org/x/sys v0.5.0 // indirect
	golang.org/x/term v0.5.0 // indirect
	golang.org/x/text v0.7.0 // indirect
	golang.org/x/time v0.3.0 // indirect
	google.golang.org/appengine v1.6.7 // indirect
	google.golang.org/genproto v0.0.0-20230123190316-2c411cf9d197 // indirect
	gopkg.in/inf.v0 v0.9.1 // indirect
	gopkg.in/yaml.v2 v2.4.0 // indirect
	gopkg.in/yaml.v3 v3.0.1 // indirect
	k8s.io/api v0.26.2 // indirect
	k8s.io/apimachinery v0.26.2 // indirect
	k8s.io/client-go v0.26.2 // indirect
	k8s.io/klog/v2 v2.80.1 // indirect
	k8s.io/kube-openapi v0.0.0-20221012153701-172d655c2280 // indirect
	k8s.io/utils v0.0.0-20230115233650-391b47cb4029 // indirect
	sigs.k8s.io/json v0.0.0-20220713155537-f223a00ba0e2 // indirect
	sigs.k8s.io/structured-merge-diff/v4 v4.2.3 // indirect
	sigs.k8s.io/yaml v1.3.0 // indirect
)
